<?xml version="1.0" encoding="UTF-8" standalone="no"?>
<!-- Created with Inkscape (http://www.inkscape.org/) -->

<svg
   xmlns:dc="http://purl.org/dc/elements/1.1/"
   xmlns:cc="http://creativecommons.org/ns#"
   xmlns:rdf="http://www.w3.org/1999/02/22-rdf-syntax-ns#"
   xmlns:svg="http://www.w3.org/2000/svg"
   xmlns="http://www.w3.org/2000/svg"
   xmlns:sodipodi="http://sodipodi.sourceforge.net/DTD/sodipodi-0.dtd"
   xmlns:inkscape="http://www.inkscape.org/namespaces/inkscape"
   width="66"
   height="66"
   viewBox="0 0 66 66"
   version="1.1"
   id="svg8"
   inkscape:version="0.92.1 r15371"
   sodipodi:docname="figure.svg">
  <defs
     id="defs2" />
  <sodipodi:namedview
     id="base"
     pagecolor="#ffffff"
     bordercolor="#666666"
     borderopacity="1.0"
     inkscape:pageopacity="0.0"
     inkscape:pageshadow="2"
     inkscape:zoom="2.8"
     inkscape:cx="121.69097"
     inkscape:cy="63.642863"
     inkscape:document-units="px"
     inkscape:current-layer="layer1"
     showgrid="true"
     inkscape:window-width="1920"
     inkscape:window-height="1025"
     inkscape:window-x="0"
     inkscape:window-y="27"
     inkscape:window-maximized="1"
     inkscape:pagecheckerboard="false"
     units="px"
     inkscape:showpageshadow="false"
     borderlayer="true"
     fit-margin-top="0"
     fit-margin-left="0"
     fit-margin-right="0"
     fit-margin-bottom="0">
    <inkscape:grid
       type="xygrid"
       id="grid33"
       originx="-293.54167"
       originy="-485.35294" />
  </sodipodi:namedview>
  <metadata
     id="metadata5">
    <rdf:RDF>
      <cc:Work
         rdf:about="">
        <dc:format>image/svg+xml</dc:format>
        <dc:type
           rdf:resource="http://purl.org/dc/dcmitype/StillImage" />
        <dc:title></dc:title>
      </cc:Work>
    </rdf:RDF>
  </metadata>
  <g
     inkscape:label="Calque 1"
     inkscape:groupmode="layer"
     id="layer1"
     transform="translate(-293.54167,-113.35536)">
    <g
       id="g54"
       transform="translate(1.984475,-0.19251181)">
      <path
         id="path2255"
         d="m 308.49479,136.96434 h -13 c -1.07812,0 -1.95312,0.875 -1.95312,1.94792 0,0.67708 0.34375,1.27082 0.86458,1.625 l 17.19792,13.17708 3.05208,-8.80729 c 0.13022,-0.5052 0.19792,-1.03646 0.19792,-1.57812 0,-3.51042 -2.84896,-6.36459 -6.35938,-6.36459"
         style="fill:#e19711;fill-opacity:1;fill-rule:nonzero;stroke:none;stroke-width:1.33333337"
         inkscape:connector-curvature="0" />
      <path
         id="path2257"
         d="m 342.76563,178.91746 c 0.005,0.005 0.0107,0.005 0.0107,0.0107 0.83855,0.67187 2.06771,0.53646 2.73959,-0.30209 0.43229,-0.54167 0.52604,-1.23438 0.32292,-1.83854 l -8.19271,-22.70833 -12.58334,9.98958 z m 0,0"
         style="fill:#e19711;fill-opacity:1;fill-rule:nonzero;stroke:none;stroke-width:1.33333337"
         inkscape:connector-curvature="0" />
      <path
         id="path2259"
         d="m 324.5625,133.07371 c 5.33854,0 9.66668,-4.33333 9.66668,-9.66667 0,-5.33853 -4.32814,-9.66666 -9.66668,-9.66666 -5.33854,0 -9.66666,4.32813 -9.66666,9.66666 0,5.33334 4.32812,9.66667 9.66666,9.66667"
         style="fill:#193051;fill-opacity:1;fill-rule:nonzero;stroke:none;stroke-width:1.33333337"
         inkscape:connector-curvature="0" />
      <path
         id="path2261"
         d="m 353.63022,136.96434 h -45.13543 c 3.51042,0 6.35938,2.85417 6.35938,6.36459 0,0.54166 -0.0677,1.07292 -0.19792,1.57812 -0.0833,0.33854 -11.38021,31.88021 -11.38021,31.88021 -0.20312,0.60416 -0.10417,1.29687 0.32813,1.83853 0.67187,0.83855 1.90104,0.97396 2.73958,0.3021 0,-0.005 0.005,-0.005 0.005,-0.0107 l 48.35938,-38.3802 c 0.52084,-0.35418 0.86459,-0.94792 0.86459,-1.625 0,-1.07292 -0.8698,-1.94792 -1.94271,-1.94792"
         style="fill:#193051;fill-opacity:1;fill-rule:nonzero;stroke:none;stroke-width:1.33333337"
         inkscape:connector-curvature="0" />
    </g>
  </g>
</svg>
